{
    "namespaces": {
      "ontologyIRI": [
        {
          "prefix": "crowd",
          "value": "http://crowd.fi.uncoma.edu.ar#"
        }
      ],
      "defaultIRIs": [
        {
          "prefix": "rdf",
          "value": "http://www.w3.org/1999/02/22-rdf-syntax-ns#"
        },
        {
          "prefix": "rdfs",
          "value": "http://www.w3.org/2000/01/rdf-schema#"
        },
        {
          "prefix": "xsd",
          "value": "http://www.w3.org/2001/XMLSchema#"
        },
        {
          "prefix": "owl",
          "value": "http://www.w3.org/2002/07/owl#"
        }
      ],
      "IRIs": []
    },
    "classes": [
      {
        "name": "http://crowd.fi.uncoma.edu.ar#Person",
        "attrs": [
          {
            "name": "http://crowd.fi.uncoma.edu.ar#Age",
            "datatype": "http://www.w3.org/2001/XMLSchema#integer"
          }
        ],
        "methods": [],
        "position": {
          "x": 286,
          "y": 125
        }
      },
      {
        "name": "http://crowd.fi.uncoma.edu.ar#Dog",
        "attrs": [
          {
            "name": "http://crowd.fi.uncoma.edu.ar#Race",
            "datatype": "http://www.w3.org/2001/XMLSchema#integer"
          }
        ],
        "methods": [],
        "position": {
          "x": 622,
          "y": 136
        }
      }
    ],
    "links": [
      {
        "name": "http://crowd.fi.uncoma.edu.ar#has",
        "classes": [
          "http://crowd.fi.uncoma.edu.ar#Person",
          "http://crowd.fi.uncoma.edu.ar#Dog"
        ],
        "multiplicity": [
          "0..*",
          "0..*"
        ],
        "roles": [
          "http://crowd.fi.uncoma.edu.ar#person",
          "http://crowd.fi.uncoma.edu.ar#dog"
        ],
        "type": "association"
      }
    ],
    "owllink": [
      ""
    ]
  }